Kratos

Kratos

Denzel Curry
Blue Men Group

Kratos

Kennethan Instrumentals

Kratos

Denzel Curry

Kenny Beats

Donkey Kong

Blue Men Group

Faust (Guilty Gear)

King K Rool

Blue Men Group

Matt Watson

Denzel Curry

Kennethan Instrumentals

Denzel Curry

They Who Made Warframe

Denzel Curry

Kennethan Instrumentals

Blue Men Group

Donkey Kong

Donkey Kong

Kenny Beats

MF DOOM
